<?xml version="1.0" encoding="utf-8"?>
<!-- Generator: Adobe Illustrator 23.0.1, SVG Export Plug-In . SVG Version: 6.00 Build 0)  -->
<svg version="1.1" xmlns="http://www.w3.org/2000/svg" xmlns:xlink="http://www.w3.org/1999/xlink" x="0px" y="0px"
	 viewBox="0 0 25 20" style="enable-background:new 0 0 25 20;" xml:space="preserve">
<style type="text/css">
	.st0{fill:#26509B;}
</style>
<g id="Слой_2">
</g>
<g id="Слой_1">
	<rect y="8.8" class="st0" width="22.6" height="2.5"/>
	<polygon class="st0" points="25,10 15.1,0.1 13.4,1.9 21.5,10 13.4,18.1 15.1,19.9 25,10 25,10 	"/>
</g>
</svg>
