<svg width="72" height="72" viewBox="0 0 72 72" fill="none" xmlns="http://www.w3.org/2000/svg">
<path fill-rule="evenodd" clip-rule="evenodd" d="M72 68C72 70.2091 70.2082 72.0089 68.0007 71.9221C48.4729 71.1541 31.6508 64.7072 19.4718 52.5282C7.29284 40.3492 0.84594 23.5271 0.0779181 3.99927C-0.00889948 1.79183 1.79086 0 4 0H8H18C20.2091 0 21.9879 1.79269 22.0986 3.99906C22.3601 9.21046 23.1355 13.9424 24.354 18.2073C24.772 19.6704 24.412 21.2601 23.336 22.3361L15.7589 29.9133C15.1544 30.5178 14.998 31.4413 15.3922 32.1998C17.3721 36.009 19.7195 39.5221 22.3974 42.7111L29.2889 49.6026C32.4827 52.2844 36.0014 54.6348 39.8171 56.6166C40.5756 57.0105 41.4988 56.854 42.1031 56.2497L49.6833 48.6695C50.7589 47.5939 52.3478 47.2338 53.8106 47.6511C58.0708 48.8667 62.7968 49.6403 68.0009 49.9014C70.2073 50.0121 72 51.7909 72 54V64V68Z" fill="#fff"/>
</svg>
