<svg width="100" height="101" viewBox="0 0 100 101" fill="none" xmlns="http://www.w3.org/2000/svg">
<path d="M28 16.9999C28 4.99994 19.5 5.49984 16.5 5.49984C13.5 5.49984 4.5 4.99986 4.5 19.4999C4.5 33.9999 33 53.4999 33 53.4999" stroke="white" stroke-width="9"/>
<path d="M72 16.9999C72 4.99994 80.5 5.49984 83.5 5.49984C86.5 5.49984 95.5 4.99986 95.5 19.4999C95.5 33.9999 67 53.4999 67 53.4999" stroke="white" stroke-width="9"/>
<path d="M41.0589 76.4821L44.5128 73.5975C41.1961 69.6264 36.5497 64.0599 32.6543 54.3126C29.0233 45.2268 25.9716 32.3059 25.5497 13.5H50H74.4503C74.0284 32.3059 70.9767 45.2268 67.3457 54.3126C63.4503 64.0599 58.8039 69.6264 55.4872 73.5975L55.3728 73.7345C54.2888 75.0321 53.1605 76.3827 52.3256 77.6541C51.4717 78.9545 50.5 80.7817 50.5 83C50.5 86.9383 53.2644 89.4355 55.2764 90.8325C57.3299 92.2584 59.9616 93.4677 62.2104 94.5011L62.4224 94.5985C63.874 95.2659 65.2084 95.8847 66.4002 96.5H50H33.5998C34.7916 95.8847 36.126 95.2659 37.5776 94.5985L37.7896 94.5011C40.0384 93.4677 42.6701 92.2584 44.7236 90.8325C46.7356 89.4355 49.5 86.9383 49.5 83C49.5 80.7817 48.5283 78.9545 47.6744 77.6541C46.8395 76.3827 45.7111 75.032 44.6271 73.7343L44.5128 73.5975L41.0589 76.4821Z" fill="white" fill-opacity="0.3" stroke="white" stroke-width="9"/>
<path d="M58 48H42.0624V44.6655L47.7856 38.9117C49.4802 37.185 50.5874 35.9908 51.1072 35.3291C51.627 34.657 52.0013 34.0366 52.23 33.468C52.4587 32.8993 52.5731 32.31 52.5731 31.6999C52.5731 30.7901 52.3184 30.1128 51.809 29.6682C51.3099 29.2236 50.6394 29.0013 49.7973 29.0013C48.9136 29.0013 48.0559 29.203 47.2242 29.6062C46.3925 30.0094 45.5244 30.5833 44.6199 31.3277L42 28.2414C43.1228 27.2902 44.0533 26.6181 44.7914 26.2252C45.5296 25.8323 46.3353 25.5325 47.2086 25.3257C48.0819 25.1086 49.0591 25 50.1404 25C51.5647 25 52.8226 25.2585 53.9142 25.7755C55.0058 26.2924 55.8532 27.0162 56.4561 27.9467C57.0591 28.8773 57.3606 29.9422 57.3606 31.1416C57.3606 32.1859 57.1735 33.1681 56.7992 34.0883C56.4353 34.9982 55.8635 35.9339 55.0838 36.8955C54.3145 37.857 52.9526 39.227 50.9981 41.0054L48.0663 43.7505V43.9676H58V48Z" fill="white"/>
</svg>
